testbenches/wave.vcd
$date
	Thu Jun 19 18:34:02 2025
$end
$version
	Icarus Verilog
$end
$timescale
	1ps
$end
$scope module olivia_tb $end
$var wire 11 ! opcode_full [10:0] $end
$var wire 8 " opcode_cbz [7:0] $end
$var wire 6 # opcode_branch [5:0] $end
$var reg 1 $ CLK $end
$var reg 1 % RST $end
$scope function get_opcode_name $end
$var reg 32 & instr [31:0] $end
$upscope $end
$scope module dut $end
$var wire 1 ' PC_MUX_SEL $end
$var wire 1 $ clk $end
$var wire 1 % rst $end
$var wire 64 ( sign_ext_inst [63:0] $end
$var wire 5 ) rt [4:0] $end
$var wire 5 * rn [4:0] $end
$var wire 5 + rm [4:0] $end
$var wire 64 , reg_write_data [63:0] $end
$var wire 5 - reg_mux_out [4:0] $end
$var wire 64 . read_data2 [63:0] $end
$var wire 64 / read_data1 [63:0] $end
$var wire 64 0 ram_read_data [63:0] $end
$var wire 64 1 pc_out [63:0] $end
$var wire 64 2 pc_in [63:0] $end
$var wire 64 3 pc_branch_offset [63:0] $end
$var wire 3 4 op_code_bits [2:0] $end
$var wire 32 5 instruction [31:0] $end
$var wire 64 6 alu_result [63:0] $end
$var wire 64 7 alu_read_data2 [63:0] $end
$var wire 64 8 adder_out [63:0] $end
$var wire 1 9 ZERO_FLAG $end
$var wire 1 : UNCOND_BRANCH $end
$var wire 1 ; REG_WRITE $end
$var wire 1 < REG2LOC $end
$var wire 1 = MEM_WRITE $end
$var wire 1 > MEM_READ $end
$var wire 1 ? MEM2REG $end
$var wire 1 @ BRANCH $end
$var wire 1 A ALU_SRC $end
$var wire 4 B ALU_SIGNAL [3:0] $end
$var wire 2 C ALU_OP [1:0] $end
$scope module IM $end
$var wire 64 D pc_addr [63:0] $end
$var reg 32 E instruction [31:0] $end
$var integer 32 F i [31:0] $end
$upscope $end
$scope module PC $end
$var wire 1 $ clk $end
$var wire 1 % rst $end
$var wire 64 G pc_in [63:0] $end
$var reg 64 H pc_out [63:0] $end
$upscope $end
$scope module alu $end
$var wire 64 I data_b [63:0] $end
$var wire 64 J data_a [63:0] $end
$var wire 4 K alu_signal [3:0] $end
$var reg 1 9 ZERO_FLAG $end
$var reg 64 L alu_result [63:0] $end
$upscope $end
$scope module aluControl $end
$var wire 3 M op_code_bits [2:0] $end
$var wire 2 N alu_op [1:0] $end
$var reg 4 O ALU_SIGNAL [3:0] $end
$upscope $end
$scope module aluMux $end
$var wire 64 P out [63:0] $end
$var wire 64 Q inp2 [63:0] $end
$var wire 64 R inp1 [63:0] $end
$var wire 1 A SEL $end
$upscope $end
$scope module branchAdder $end
$var wire 64 S branch_off [63:0] $end
$var wire 64 T pc_out [63:0] $end
$var wire 64 U result [63:0] $end
$upscope $end
$scope module controlUnit $end
$var wire 32 V instruction [31:0] $end
$var wire 11 W opcode_full [10:0] $end
$var wire 8 X opcode_cbz [7:0] $end
$var wire 6 Y opcode_branch [5:0] $end
$var reg 2 Z ALU_OP [1:0] $end
$var reg 1 A ALU_SRC $end
$var reg 1 @ BRANCH $end
$var reg 1 ? MEM2REG $end
$var reg 1 > MEM_READ $end
$var reg 1 = MEM_WRITE $end
$var reg 1 < REG2LOC $end
$var reg 1 ; REG_WRITE $end
$var reg 1 : UNCOND_BRANCH $end
$upscope $end
$scope module pcAdder $end
$var wire 4 [ inc [3:0] $end
$var wire 64 \ pc_out [63:0] $end
$var wire 64 ] adder_out [63:0] $end
$upscope $end
$scope module pcMux $end
$var wire 1 ' SEL $end
$var wire 64 ^ inp1 [63:0] $end
$var wire 64 _ inp2 [63:0] $end
$var wire 64 ` out [63:0] $end
$upscope $end
$scope module ram $end
$var wire 1 > MEM_READ $end
$var wire 1 = MEM_WRITE $end
$var wire 64 a address [63:0] $end
$var wire 1 $ clk $end
$var wire 64 b write_data [63:0] $end
$var reg 64 c read_data [63:0] $end
$var integer 32 d m [31:0] $end
$upscope $end
$scope module ramMux $end
$var wire 1 ? SEL $end
$var wire 64 e inp1 [63:0] $end
$var wire 64 f inp2 [63:0] $end
$var wire 64 g out [63:0] $end
$upscope $end
$scope module regFile $end
$var wire 1 ; REG_WRITE $end
$var wire 1 $ clk $end
$var wire 5 h read1 [4:0] $end
$var wire 64 i writeData [63:0] $end
$var wire 5 j write_reg [4:0] $end
$var wire 5 k read2 [4:0] $end
$var reg 64 l read_data1 [63:0] $end
$var reg 64 m read_data2 [63:0] $end
$var integer 32 n r [31:0] $end
$upscope $end
$scope module regMux $end
$var wire 1 < REG2LOC $end
$var wire 5 o rm [4:0] $end
$var wire 5 p rt [4:0] $end
$var wire 5 q out [4:0] $end
$upscope $end
$scope module signExt $end
$var wire 32 r instruction [31:0] $end
$var wire 11 s opcode_full [10:0] $end
$var wire 8 t opcode_cbz [7:0] $end
$var wire 6 u opcode_branch [5:0] $end
$var reg 64 v extended [63:0] $end
$upscope $end
$upscope $end
$scope task print_instructions $end
$var reg 32 w instr [31:0] $end
$var reg 160 x opcode_name [160:1] $end
$var integer 32 y i [31:0] $end
$upscope $end
$scope task print_ram_contents $end
$var integer 32 z i [31:0] $end
$upscope $end
$scope task print_register_contents $end
$var integer 32 { i [31:0] $end
$upscope $end
$upscope $end
$enddefinitions $end
$comment Show the parameter values. $end
$dumpall
$end
#0
$dumpvars
b100000 {
bx z
b10000 y
b10011100100111101010000 x
b0 w
b0 v
b111110 u
b11111000 t
b11111000010 s
b11111000010000000000000101000010 r
b0 q
b10 p
b0 o
b11111 n
b0 m
b1010 l
b0 k
b10 j
b11000000100 i
b1010 h
b11000000100 g
b1010 f
b11000000100 e
b10000000 d
b11000000100 c
b0 b
b1010 a
b100 `
b100 _
b0 ^
b100 ]
b0 \
b100 [
b0 Z
b111110 Y
b11111000 X
b11111000010 W
b11111000010000000000000101000010 V
b0 U
b0 T
b0 S
b0 R
b0 Q
b0 P
b10 O
b0 N
b110 M
b1010 L
b10 K
b1010 J
b0 I
b0 H
b100 G
b1000000 F
b11111000010000000000000101000010 E
b0 D
b0 C
b10 B
1A
0@
1?
1>
0=
0<
1;
0:
09
b100 8
b0 7
b1010 6
b11111000010000000000000101000010 5
b110 4
b0 3
b100 2
b0 1
b11000000100 0
b1010 /
b0 .
b0 -
b11000000100 ,
b0 +
b1010 *
b10 )
b0 (
0'
b0 &
1%
0$
b111110 #
b11111000 "
b11111000010 !
$end
#5000
1$
#10000
0$
0%
#15000
b100001000101 ,
b100001000101 g
b100001000101 i
b100001000101 0
b100001000101 c
b100001000101 e
b1011 6
b1011 L
b1011 a
b1011 f
b1 7
b1 I
b1 P
b100 S
b1 (
b1 R
b1 v
b11 )
b11 j
b11 p
b1000 2
b1000 G
b1000 `
b11111000010000000001000101000011 5
b11111000010000000001000101000011 E
b11111000010000000001000101000011 V
b11111000010000000001000101000011 r
b1000 3
b1000 U
b1000 ^
b1000 8
b1000 ]
b1000 _
b100 1
b100 D
b100 H
b100 T
b100 \
1$
#20000
0$
#25000
b110 B
b110 K
b110 O
b1001000001 ,
b1001000001 g
b1001000001 i
b1001000001 6
b1001000001 L
b1001000001 a
b1001000001 f
b10 C
b10 N
b10 Z
0>
1;
0?
0A
b11000000100 .
b11000000100 Q
b11000000100 b
b11000000100 m
b10 -
b10 k
b10 q
b11000000100 7
b11000000100 I
b11000000100 P
b1111111111111111111111111111111100101100000010000000000110010000 S
b100001000101 /
b100001000101 J
b100001000101 l
b11001011 X
b110010 Y
b11001011 t
b110010 u
b110010 #
b11001011 "
b101 4
b101 M
b11001011000 W
b11001011000 s
b11001011000 !
b10 +
b10 o
b1111111111111111111111111111111111001011000000100000000001100100 (
b1111111111111111111111111111111111001011000000100000000001100100 R
b1111111111111111111111111111111111001011000000100000000001100100 v
b100 )
b100 j
b100 p
b11 *
b11 h
b1100 2
b1100 G
b1100 `
b11001011000000100000000001100100 5
b11001011000000100000000001100100 E
b11001011000000100000000001100100 V
b11001011000000100000000001100100 r
b1111111111111111111111111111111100101100000010000000000110011000 3
b1111111111111111111111111111111100101100000010000000000110011000 U
b1111111111111111111111111111111100101100000010000000000110011000 ^
b1100 8
b1100 ]
b1100 _
b1000 1
b1000 D
b1000 H
b1000 T
b1000 \
1$
#30000
0$
#35000
b111001001001 ,
b111001001001 g
b111001001001 i
b111001001001 6
b111001001001 L
b111001001001 a
b111001001001 f
b10 C
b10 N
b10 Z
1;
b10 B
b10 K
b10 O
b1111111111111111111111111111111000101100000010000000000110010100 S
b10001011000 W
b10001011 X
b100010 Y
b10001011000 s
b10001011 t
b100010 u
b100010 #
b10001011 "
b10001011000 !
b1 4
b1 M
b1111111111111111111111111111111110001011000000100000000001100101 (
b1111111111111111111111111111111110001011000000100000000001100101 R
b1111111111111111111111111111111110001011000000100000000001100101 v
b101 )
b101 j
b101 p
b10000 2
b10000 G
b10000 `
b10001011000000100000000001100101 5
b10001011000000100000000001100101 E
b10001011000000100000000001100101 V
b10001011000000100000000001100101 r
b1111111111111111111111111111111000101100000010000000000110100000 3
b1111111111111111111111111111111000101100000010000000000110100000 U
b1111111111111111111111111111111000101100000010000000000110100000 ^
b10000 8
b10000 ]
b10000 _
b1100 1
b1100 D
b1100 H
b1100 T
b1100 \
1$
#40000
0$
#45000
b1 ,
b1 g
b1 i
b1 6
b1 L
b1 a
b1 f
1@
1<
b1 C
b1 N
b1 Z
0;
b111 B
b111 K
b111 O
b1 7
b1 I
b1 P
b1 .
b1 Q
b1 b
b1 m
b1 -
b1 k
b1 q
b1000 S
b11000000100 /
b11000000100 J
b11000000100 l
b10110100000 W
b10110100 X
b101101 Y
b10110100000 s
b10110100 t
b101101 u
b101101 #
b10110100 "
b10110100000 !
b10 4
b10 M
b0 +
b0 o
b10 (
b10 R
b10 v
b1 )
b1 j
b1 p
b10 *
b10 h
b10100 2
b10100 G
b10100 `
b10110100000000000000000001000001 5
b10110100000000000000000001000001 E
b10110100000000000000000001000001 V
b10110100000000000000000001000001 r
b11000 3
b11000 U
b11000 ^
b10100 8
b10100 ]
b10100 _
b10000 1
b10000 D
b10000 H
b10000 T
b10000 \
1$
#50000
0$
#55000
1'
19
b0 ,
b0 g
b0 i
b0 6
b0 L
b0 a
b0 f
b0 7
b0 I
b0 P
b0 .
b0 Q
b0 b
b0 m
b0 -
b0 k
b0 q
b0 )
b0 j
b0 p
b11100 2
b11100 G
b11100 `
b10110100000000000000000001000000 5
b10110100000000000000000001000000 E
b10110100000000000000000001000000 V
b10110100000000000000000001000000 r
b11100 3
b11100 U
b11100 ^
b11000 8
b11000 ]
b11000 _
b10100 1
b10100 D
b10100 H
b10100 T
b10100 \
1$
#60000
0$
#65000
b1 B
b1 K
b1 O
0'
09
b111001000101 ,
b111001000101 g
b111001000101 i
b111001000101 6
b111001000101 L
b111001000101 a
b111001000101 f
1;
b10 C
b10 N
b10 Z
0@
0<
b100001000101 7
b100001000101 I
b100001000101 P
b100001000101 .
b100001000101 Q
b100001000101 b
b100001000101 m
b1111111111111111111111111111111010101000000011000000000100011000 S
b11 -
b11 k
b11 q
b10101010000 W
b10101010 X
b101010 Y
b10101010000 s
b10101010 t
b101010 u
b101010 #
b10101010 "
b10101010000 !
b11 +
b11 o
b1111111111111111111111111111111110101010000000110000000001000110 (
b1111111111111111111111111111111110101010000000110000000001000110 R
b1111111111111111111111111111111110101010000000110000000001000110 v
b110 )
b110 j
b110 p
b100000 2
b100000 G
b100000 `
b10101010000000110000000001000110 5
b10101010000000110000000001000110 E
b10101010000000110000000001000110 V
b10101010000000110000000001000110 r
b1111111111111111111111111111111010101000000011000000000100110100 3
b1111111111111111111111111111111010101000000011000000000100110100 U
b1111111111111111111111111111111010101000000011000000000100110100 ^
b100000 8
b100000 ]
b100000 _
b11100 1
b11100 D
b11100 H
b11100 T
b11100 \
1$
#70000
0$
#75000
b100 ,
b100 g
b100 i
b100 6
b100 L
b100 a
b100 f
b10 C
b10 N
b10 Z
1;
b0 B
b0 K
b0 O
b1111111111111111111111111111111000101000000011000000000100011100 S
b10001010000 W
b10001010 X
b100010 Y
b10001010000 s
b10001010 t
b100010 u
b100010 #
b10001010 "
b10001010000 !
b0 4
b0 M
b1111111111111111111111111111111110001010000000110000000001000111 (
b1111111111111111111111111111111110001010000000110000000001000111 R
b1111111111111111111111111111111110001010000000110000000001000111 v
b111 )
b111 j
b111 p
b100100 2
b100100 G
b100100 `
b10001010000000110000000001000111 5
b10001010000000110000000001000111 E
b10001010000000110000000001000111 V
b10001010000000110000000001000111 r
b1111111111111111111111111111111000101000000011000000000100111100 3
b1111111111111111111111111111111000101000000011000000000100111100 U
b1111111111111111111111111111111000101000000011000000000100111100 ^
b100100 8
b100100 ]
b100100 _
b100000 1
b100000 D
b100000 H
b100000 T
b100000 \
1$
#80000
0$
#85000
b10 B
b10 K
b10 O
09
b101 ,
b101 g
b101 i
b101 6
b101 L
b101 a
b101 f
1=
1A
1<
b0 C
b0 N
b0 Z
0;
b1 7
b1 I
b1 P
b1001000001 .
b1001000001 Q
b1001000001 b
b1001000001 m
b100 -
b100 k
b100 q
b100 S
b100 /
b100 J
b100 l
b11111000000 W
b11111000 X
b111110 Y
b11111000000 s
b11111000 t
b111110 u
b111110 #
b11111000 "
b11111000000 !
b110 4
b110 M
b0 +
b0 o
b1 (
b1 R
b1 v
b100 )
b100 j
b100 p
b111 *
b111 h
b101000 2
b101000 G
b101000 `
b11111000000000000001000011100100 5
b11111000000000000001000011100100 E
b11111000000000000001000011100100 V
b11111000000000000001000011100100 r
b101000 3
b101000 U
b101000 ^
b101000 8
b101000 ]
b101000 _
b100100 1
b100100 D
b100100 H
b100100 T
b100100 \
1$
#90000
0$
#95000
19
b0 ,
b0 g
b0 i
1'
b0 6
b0 L
b0 a
b0 f
0@
1:
0=
0A
0<
b0 .
b0 Q
b0 b
b0 m
b0 /
b0 J
b0 l
b0 7
b0 I
b0 P
b1111111111111111111111111111111111111111111111111111111111110100 S
b11111 -
b11111 k
b11111 q
b10111 X
b101 Y
b10111 t
b101 u
b101 #
b10111 "
b1 4
b1 M
b10111111 W
b10111111 s
b10111111 !
b11111 +
b11111 o
b11111 *
b11111 h
b1111111111111111111111111111111111111111111111111111111111111101 (
b1111111111111111111111111111111111111111111111111111111111111101 R
b1111111111111111111111111111111111111111111111111111111111111101 v
b11101 )
b11101 j
b11101 p
b11100 2
b11100 G
b11100 `
b10111111111111111111111111101 5
b10111111111111111111111111101 E
b10111111111111111111111111101 V
b10111111111111111111111111101 r
b11100 3
b11100 U
b11100 ^
b101100 8
b101100 ]
b101100 _
b101000 1
b101000 D
b101000 H
b101000 T
b101000 \
1$
#100000
0$
#105000
b1 B
b1 K
b1 O
09
b111001000101 ,
b111001000101 g
b111001000101 i
0'
b111001000101 6
b111001000101 L
b111001000101 a
b111001000101 f
b10 C
b10 N
b10 Z
1;
0:
b100001000101 7
b100001000101 I
b100001000101 P
b100001000101 .
b100001000101 Q
b100001000101 b
b100001000101 m
b11 -
b11 k
b11 q
b1111111111111111111111111111111010101000000011000000000100011000 S
b11000000100 /
b11000000100 J
b11000000100 l
b10101010 X
b101010 Y
b10101010 t
b101010 u
b101010 #
b10101010 "
b10 4
b10 M
b10101010000 W
b10101010000 s
b10101010000 !
b11 +
b11 o
b1111111111111111111111111111111110101010000000110000000001000110 (
b1111111111111111111111111111111110101010000000110000000001000110 R
b1111111111111111111111111111111110101010000000110000000001000110 v
b110 )
b110 j
b110 p
b10 *
b10 h
b100000 2
b100000 G
b100000 `
b10101010000000110000000001000110 5
b10101010000000110000000001000110 E
b10101010000000110000000001000110 V
b10101010000000110000000001000110 r
b1111111111111111111111111111111010101000000011000000000100110100 3
b1111111111111111111111111111111010101000000011000000000100110100 U
b1111111111111111111111111111111010101000000011000000000100110100 ^
b100000 8
b100000 ]
b100000 _
b11100 1
b11100 D
b11100 H
b11100 T
b11100 \
1$
#110000
0$
#115000
b100 ,
b100 g
b100 i
b100 6
b100 L
b100 a
b100 f
b10 C
b10 N
b10 Z
1;
b0 B
b0 K
b0 O
b1111111111111111111111111111111000101000000011000000000100011100 S
b10001010000 W
b10001010 X
b100010 Y
b10001010000 s
b10001010 t
b100010 u
b100010 #
b10001010 "
b10001010000 !
b0 4
b0 M
b1111111111111111111111111111111110001010000000110000000001000111 (
b1111111111111111111111111111111110001010000000110000000001000111 R
b1111111111111111111111111111111110001010000000110000000001000111 v
b111 )
b111 j
b111 p
b100100 2
b100100 G
b100100 `
b10001010000000110000000001000111 5
b10001010000000110000000001000111 E
b10001010000000110000000001000111 V
b10001010000000110000000001000111 r
b1111111111111111111111111111111000101000000011000000000100111100 3
b1111111111111111111111111111111000101000000011000000000100111100 U
b1111111111111111111111111111111000101000000011000000000100111100 ^
b100100 8
b100100 ]
b100100 _
b100000 1
b100000 D
b100000 H
b100000 T
b100000 \
1$
#120000
0$
#125000
b10 B
b10 K
b10 O
09
b101 ,
b101 g
b101 i
b101 6
b101 L
b101 a
b101 f
1=
1A
1<
b0 C
b0 N
b0 Z
0;
b1 7
b1 I
b1 P
b1001000001 .
b1001000001 Q
b1001000001 b
b1001000001 m
b100 -
b100 k
b100 q
b100 S
b100 /
b100 J
b100 l
b11111000000 W
b11111000 X
b111110 Y
b11111000000 s
b11111000 t
b111110 u
b111110 #
b11111000 "
b11111000000 !
b110 4
b110 M
b0 +
b0 o
b1 (
b1 R
b1 v
b100 )
b100 j
b100 p
b111 *
b111 h
b101000 2
b101000 G
b101000 `
b11111000000000000001000011100100 5
b11111000000000000001000011100100 E
b11111000000000000001000011100100 V
b11111000000000000001000011100100 r
b101000 3
b101000 U
b101000 ^
b101000 8
b101000 ]
b101000 _
b100100 1
b100100 D
b100100 H
b100100 T
b100100 \
1$
#130000
0$
#135000
19
b0 ,
b0 g
b0 i
1'
b0 6
b0 L
b0 a
b0 f
0@
1:
0=
0A
0<
b0 .
b0 Q
b0 b
b0 m
b0 /
b0 J
b0 l
b0 7
b0 I
b0 P
b1111111111111111111111111111111111111111111111111111111111110100 S
b11111 -
b11111 k
b11111 q
b10111 X
b101 Y
b10111 t
b101 u
b101 #
b10111 "
b1 4
b1 M
b10111111 W
b10111111 s
b10111111 !
b11111 +
b11111 o
b11111 *
b11111 h
b1111111111111111111111111111111111111111111111111111111111111101 (
b1111111111111111111111111111111111111111111111111111111111111101 R
b1111111111111111111111111111111111111111111111111111111111111101 v
b11101 )
b11101 j
b11101 p
b11100 2
b11100 G
b11100 `
b10111111111111111111111111101 5
b10111111111111111111111111101 E
b10111111111111111111111111101 V
b10111111111111111111111111101 r
b11100 3
b11100 U
b11100 ^
b101100 8
b101100 ]
b101100 _
b101000 1
b101000 D
b101000 H
b101000 T
b101000 \
1$
#140000
0$
#145000
b1 B
b1 K
b1 O
09
b111001000101 ,
b111001000101 g
b111001000101 i
0'
b111001000101 6
b111001000101 L
b111001000101 a
b111001000101 f
b10 C
b10 N
b10 Z
1;
0:
b100001000101 7
b100001000101 I
b100001000101 P
b100001000101 .
b100001000101 Q
b100001000101 b
b100001000101 m
b11 -
b11 k
b11 q
b1111111111111111111111111111111010101000000011000000000100011000 S
b11000000100 /
b11000000100 J
b11000000100 l
b10101010 X
b101010 Y
b10101010 t
b101010 u
b101010 #
b10101010 "
b10 4
b10 M
b10101010000 W
b10101010000 s
b10101010000 !
b11 +
b11 o
b1111111111111111111111111111111110101010000000110000000001000110 (
b1111111111111111111111111111111110101010000000110000000001000110 R
b1111111111111111111111111111111110101010000000110000000001000110 v
b110 )
b110 j
b110 p
b10 *
b10 h
b100000 2
b100000 G
b100000 `
b10101010000000110000000001000110 5
b10101010000000110000000001000110 E
b10101010000000110000000001000110 V
b10101010000000110000000001000110 r
b1111111111111111111111111111111010101000000011000000000100110100 3
b1111111111111111111111111111111010101000000011000000000100110100 U
b1111111111111111111111111111111010101000000011000000000100110100 ^
b100000 8
b100000 ]
b100000 _
b11100 1
b11100 D
b11100 H
b11100 T
b11100 \
1$
#150000
0$
#155000
b100 ,
b100 g
b100 i
b100 6
b100 L
b100 a
b100 f
b10 C
b10 N
b10 Z
1;
b0 B
b0 K
b0 O
b1111111111111111111111111111111000101000000011000000000100011100 S
b10001010000 W
b10001010 X
b100010 Y
b10001010000 s
b10001010 t
b100010 u
b100010 #
b10001010 "
b10001010000 !
b0 4
b0 M
b1111111111111111111111111111111110001010000000110000000001000111 (
b1111111111111111111111111111111110001010000000110000000001000111 R
b1111111111111111111111111111111110001010000000110000000001000111 v
b111 )
b111 j
b111 p
b100100 2
b100100 G
b100100 `
b10001010000000110000000001000111 5
b10001010000000110000000001000111 E
b10001010000000110000000001000111 V
b10001010000000110000000001000111 r
b1111111111111111111111111111111000101000000011000000000100111100 3
b1111111111111111111111111111111000101000000011000000000100111100 U
b1111111111111111111111111111111000101000000011000000000100111100 ^
b100100 8
b100100 ]
b100100 _
b100000 1
b100000 D
b100000 H
b100000 T
b100000 \
1$
#160000
0$
#165000
b10 B
b10 K
b10 O
09
b101 ,
b101 g
b101 i
b101 6
b101 L
b101 a
b101 f
1=
1A
1<
b0 C
b0 N
b0 Z
0;
b1 7
b1 I
b1 P
b1001000001 .
b1001000001 Q
b1001000001 b
b1001000001 m
b100 -
b100 k
b100 q
b100 S
b100 /
b100 J
b100 l
b11111000000 W
b11111000 X
b111110 Y
b11111000000 s
b11111000 t
b111110 u
b111110 #
b11111000 "
b11111000000 !
b110 4
b110 M
b0 +
b0 o
b1 (
b1 R
b1 v
b100 )
b100 j
b100 p
b111 *
b111 h
b101000 2
b101000 G
b101000 `
b11111000000000000001000011100100 5
b11111000000000000001000011100100 E
b11111000000000000001000011100100 V
b11111000000000000001000011100100 r
b101000 3
b101000 U
b101000 ^
b101000 8
b101000 ]
b101000 _
b100100 1
b100100 D
b100100 H
b100100 T
b100100 \
1$
#170000
0$
#175000
19
b0 ,
b0 g
b0 i
1'
b0 6
b0 L
b0 a
b0 f
0@
1:
0=
0A
0<
b0 .
b0 Q
b0 b
b0 m
b0 /
b0 J
b0 l
b0 7
b0 I
b0 P
b1111111111111111111111111111111111111111111111111111111111110100 S
b11111 -
b11111 k
b11111 q
b10111 X
b101 Y
b10111 t
b101 u
b101 #
b10111 "
b1 4
b1 M
b10111111 W
b10111111 s
b10111111 !
b11111 +
b11111 o
b11111 *
b11111 h
b1111111111111111111111111111111111111111111111111111111111111101 (
b1111111111111111111111111111111111111111111111111111111111111101 R
b1111111111111111111111111111111111111111111111111111111111111101 v
b11101 )
b11101 j
b11101 p
b11100 2
b11100 G
b11100 `
b10111111111111111111111111101 5
b10111111111111111111111111101 E
b10111111111111111111111111101 V
b10111111111111111111111111101 r
b11100 3
b11100 U
b11100 ^
b101100 8
b101100 ]
b101100 _
b101000 1
b101000 D
b101000 H
b101000 T
b101000 \
1$
#180000
0$
b10000000 z
b100000 {
